221.328644985
110.21686293
94.5493238317
81.9313835646
115.185648528
83.6989033104
41.0789664455
71.4439535736
95.6519044958
18.8331443712
28.6808322874
16.3307080313
77.9961319559
-8.99221438356
1.88762973848
-38.4882811858
-60.9426742426
-79.3141989885
-78.7777831177
-53.6399342406
-88.0066342734
-37.1056055807
-174.442751382
-130.396049144
-67.6788694893
-98.9727590638
-109.644015412
-109.118343014
-94.7167760251
-254.064197962
-180.240658191
-305.35776392
-240.130299831
-369.739040365
-149.702824048
-634.148716552
-104.299222987
-151.82946023
-143.189352665
-157.81561422
-64.7474507549
-102.748630802
-168.749604288
-213.517601401
-263.542940304
-69.404489974
-88.7603161776
-141.474066882
-110.239508293
-136.943951879
-134.467111064
-231.654091232
-135.149109416
-156.538837153
-152.570103915
-258.893007243
-154.229109104
-176.201840257
-149.786160023
-285.524597198
-330.296330827
-301.531057437
-238.753330152
-270.310009487
-309.391565638
-285.772854226
-251.332367335
-140.64638887
-203.438693675
-260.490344703
-91.4785069466
-110.989416411
-103.897616611
-92.5067277853
-202.975296048
-106.534376717
-252.43195476
-182.74962178
-319.292196794
-358.698413988
-275.131249337
-264.851450036
-427.576379911
-298.443868816
-204.479000847
-186.053712952
-182.460531234
-149.860983153
-90.0001041873
-144.615141931
-102.044098516
-81.5745661341
-109.384839836
-109.184278968
-117.27882242
-118.642652437
-370.30903443
-178.350616005
-232.834390663
-202.336744886
-88.3030943428
-184.027397772
-199.464710382
-121.498503247
-177.708779226
-179.811836767
-313.591441039
-180.491037473
-202.829132877
-173.780407645
-191.676813499
-128.353416693
-241.358560253
-467.041474822
-285.343573805
-910.324830084
-489.473826914
-243.305456273
-128.917930558
-179.427591604
-343.400926182
-222.987683499
-460.867011155
-266.314887422
-277.231821414
-273.55203044
-537.856255638
-204.264794431
-273.541109189
-424.503789377
-228.5220049
-258.983021311
-494.962109292
-342.713324743
-359.487355481
-208.708712121
-221.372766194
-186.453767374
-267.361682848
-241.972606002
-270.364059311
-193.316198011
-224.485456814
-265.513927887
-336.25066963
-443.381080792
-257.374200878
-166.621107558
-202.820814207
-130.913463832
-172.380916133
-174.046023414
-149.485342726
-117.518082137
-220.335734606
-475.233843841
-443.452725862
-330.472388358
-399.591499773
-560.281778708
-329.384257538
-171.763403913
-138.758571598
-239.767163529
-128.99518261
-165.962134637
-203.052564172
-214.342231279
-176.251511669
-284.866227161
-169.256113621
-243.175295636
-313.008918556
-173.247127803
-198.533498316
-108.235335867
-93.2970158392
-168.732849813
-142.01835717
-304.498404003
-167.184669119
-286.298365709
-224.628478701
-227.296687303
-162.007921376
-214.81551296
-157.891188412
-258.301849537
-180.810690872
-163.66609317
-388.555938333
-149.671441241
-222.423145035
-149.205755391
-250.743833057
-289.861455978
-509.815122697
-150.199560191
-512.799735283
-605.629896465
-374.667889222
-643.667993427
-247.876275478
-172.856557333
-542.8986866
-260.78037048
-320.447048766
-418.566479146
-179.579751807
-279.708542071
-328.962566286
-280.051949069
-232.14892094
-227.157080105
-197.760159787
-229.593064793
-198.683998486
-269.638459174
-230.24363948
-202.871023218
-364.723640797
-260.170724582
-256.009250801
-191.813256943
-255.475367809
-247.793135919
-384.769220834
-156.206370914
-406.251481825
-232.663608473
-232.16521784
-338.507203444
-137.331159432
-379.642956968
-391.987580656
-477.294344018
-484.010606203
-186.34516993
-364.259737707
-582.895989609
-338.146622732
-343.522459446
-241.238732389
-242.41851422
-321.163877075
-471.025211575
-267.360524265
-373.07907761
-202.627584673
-375.469518531
-271.765590518
-232.791363491
-137.649193239
-177.586837645
-207.30773229
-180.097010035
-190.196798906
-141.007096799
-225.650445085
-210.288213684
-185.956339799
-138.055898853
-184.137627029
-182.594803219
-212.232656003
-205.783159238
-302.71229351
-278.006799369
-154.130502763
-200.208999461
-245.692301671
-286.850158827
-633.401603299
-556.242038967
-365.121715643
-348.75643391
-374.148229319
-171.472737152
-341.765141071
-285.014608901
-533.67782551
-220.971464821
-443.111445226
-264.188038046
-283.262900673
-394.862788473
-312.551537412
-440.789444218
-313.315809131
-205.585571233
-128.244199304
-244.799724649
-203.054411284
-145.063741065
-214.736490156
-204.148159167
-323.490226825
-309.843990076
-166.831232838
-277.550321391
-266.043135149
-155.183629524
-203.827576601
-299.761016985
-304.238112588
-374.299057176
-217.957972614
-154.039361884
-217.216635733
-220.29526727
-204.263614787
-241.159674916
-251.645470827
-371.092604347
-365.997953212
-236.305269078
-251.825190286
-460.4231318
-395.498135588
-296.19194001
-296.984030537
-172.408792933
-127.847326947
-288.233158038
-181.815682794
-227.042378667
-301.473264473
-263.162023701
-349.418448622
-176.306145341
-289.391052823
-276.170016347
-364.9966866
-441.374846745
-348.175798107
-309.728585609
-360.693816974
-215.579036453
-294.59598242
-365.926623065
-368.307336689
-212.81541595
-179.56032402
-180.003943082
-280.23401233
-312.041317763
-377.599712309
-466.613764083
-511.630680325
-583.102346762
-548.666469795
-531.757619366
-345.944165133
-372.135522682
-279.337794025
-523.688002795
-478.204375566
-336.790151609
-647.714208271
-250.084746934
-297.618246133
-241.295402032
-159.880067746
-188.984275395
-244.380836
-187.495628713
-263.214498817
-368.196325056
-225.321097307
-314.494343587
-155.303754628
-186.36120387
-265.119973038
-367.006546097
-204.826819223
-409.940402178
-181.476158458
-135.793742285
-238.005758926
-247.919952635
-272.405994357
-227.439688236
-163.442146811
-161.46232149
-203.905004556
-176.706164988
-288.027155947
-262.585249788
-197.075222548
-222.995480274
-199.275438901
-273.573758875
-288.715887885
-225.352977722
-178.943251104
-280.666607496
-124.107750844
-244.639697791
-241.403231113
-233.403914798
-244.051055693
-255.202055886
-313.404070996
-409.087907378
-247.19664372
-354.1103104
-397.086141209
-306.225426759
-286.381648516
-340.091059388
-415.074386735
-163.097221042
-187.866181632
-243.024350393
-242.598465337
-184.357623617
-182.535136778
-280.2259936
-193.632446584
-228.257836318
-215.06568669
-205.659087417
-214.235526734
-120.320157196
-153.484978919
-255.357821392
-229.217278301
-323.303601213
-280.233398557
-225.91399189
-454.41152592
-320.267263692
-421.816332296
-317.870108599
-488.855235544
-639.965157363
-780.679070555
-511.014822806
-229.685019644
-542.590820898
-314.715287698
-266.301786961
-626.893276123
-501.76301149
-419.908159045
-203.601607368
-435.330379184
-345.832252117
-522.532057214
-388.879440429
-258.735081405
-604.401535898
-455.866554582
-580.847561631
-354.043584743
-333.342909788
-270.345150638
-254.105689008
-320.902178761
-431.754807289
-394.57439778
-638.635113465
-640.499477043
-451.669843336
-270.463114575
-327.942597475
-784.245731777
-344.543873472
-194.005937911
-346.149667641
-203.287071533
-148.478295805
-219.825909465
-257.083940469
-167.766783328
-165.078373874
-300.732951096
-162.604404327
-255.854328368
-238.786839247
-123.424838712
-266.389801855
-216.611138852
-173.691492387
-157.442980853
-268.9895675
-223.605595748
-225.867530488
-264.293700917
-169.21944911
-160.429937899
-294.664537227
-268.570567569
-317.624806794
-228.149993919
-249.104576973
-171.023161485
-224.237933309
-244.930293146
-192.606057072
